[gd_scene load_steps=8 format=2]

[ext_resource path="res://Sprites/Powerups/Chesed/power up water explosion3.png" type="Texture" id=2]
[ext_resource path="res://Sprites/Powerups/Chesed/power up water explosion1.png" type="Texture" id=4]
[ext_resource path="res://Sprites/Powerups/Chesed/power up water explosion2.png" type="Texture" id=6]
[ext_resource path="res://Sprites/Powerups/Chesed/power up water explosion6.png" type="Texture" id=7]
[ext_resource path="res://Scripts/Powerups/ChesedArea.gd" type="Script" id=9]

[sub_resource type="SpriteFrames" id=1]
animations = [ {
"frames": [ ExtResource( 7 ) ],
"loop": true,
"name": "SustainedAnim",
"speed": 0.1
}, {
"frames": [ ExtResource( 4 ), ExtResource( 6 ), ExtResource( 2 ) ],
"loop": false,
"name": "InitialAnim",
"speed": 5.0
} ]

[sub_resource type="CircleShape2D" id=2]
radius = 97.0162

[node name="ChesedArea" type="Area2D" groups=[
"ChesedArea",
]]
collision_layer = 16
collision_mask = 8
script = ExtResource( 9 )
life = 5

[node name="ChesedAreaAnim" type="AnimatedSprite" parent="."]
frames = SubResource( 1 )
animation = "SustainedAnim"
playing = true

[node name="ChesedAreaTween" type="Tween" parent="."]

[node name="ChesedAreaCol" type="CollisionShape2D" parent="."]
visible = false
shape = SubResource( 2 )
[connection signal="animation_finished" from="ChesedAreaAnim" to="." method="_on_ChesedAreaAnim_animation_finished"]
[connection signal="tween_completed" from="ChesedAreaTween" to="." method="_on_ChesedAreaTween_tween_completed"]
