[gd_scene load_steps=8 format=2]

[ext_resource path="res://Sprites/Powerups/Netzach/power up wind cloud teleport 1.png" type="Texture" id=1]
[ext_resource path="res://Sprites/Powerups/Netzach/power up wind cloud teleport 4.png" type="Texture" id=2]
[ext_resource path="res://Sprites/Powerups/Netzach/power up wind cloud teleport 2.png" type="Texture" id=3]
[ext_resource path="res://Sprites/Powerups/Netzach/power up wind cloud teleport 3.png" type="Texture" id=4]
[ext_resource path="res://Sprites/Powerups/Netzach/power up wind cloud teleport 5.png" type="Texture" id=5]
[ext_resource path="res://Scripts/Powerups/NetzachSmokeCloud.gd" type="Script" id=6]

[sub_resource type="SpriteFrames" id=1]
animations = [ {
"frames": [ ExtResource( 1 ), ExtResource( 3 ), ExtResource( 4 ), ExtResource( 2 ), ExtResource( 5 ) ],
"loop": true,
"name": "default",
"speed": 12.0
} ]

[node name="AnimatedSprite" type="AnimatedSprite"]
frames = SubResource( 1 )
script = ExtResource( 6 )
[connection signal="animation_finished" from="." to="." method="_on_AnimatedSprite_animation_finished"]
