[gd_scene load_steps=3 format=2]

[ext_resource path="res://Fonts/MainMenuButtonFont.tres" type="DynamicFont" id=1]
[ext_resource path="res://Sprites/UI/box 72 angels.png" type="Texture" id=3]

[node name="ScoreItem" type="TextureRect"]
margin_left = -307.0
margin_right = 274.0
margin_bottom = 67.0
grow_horizontal = 0
grow_vertical = 0
rect_min_size = Vector2( 581, 67 )
size_flags_horizontal = 4
size_flags_vertical = 4
texture = ExtResource( 3 )
expand = true
__meta__ = {
"_edit_use_anchors_": false
}

[node name="PlayerName" type="RichTextLabel" parent="."]
margin_left = 39.0
margin_top = 10.0
margin_right = 485.0
margin_bottom = 67.0
custom_fonts/normal_font = ExtResource( 1 )
tab_size = 3
text = "1. Godzilla"
__meta__ = {
"_edit_use_anchors_": false
}

[node name="Score" type="Label" parent="."]
margin_left = 463.0
margin_top = 10.1972
margin_right = 548.0
margin_bottom = 66.1972
custom_fonts/font = ExtResource( 1 )
text = "13"
align = 2
valign = 1
__meta__ = {
"_edit_use_anchors_": false
}
