[gd_scene load_steps=5 format=2]

[ext_resource path="res://Sprites/Inimigos/qliphort monolith pixel art.png" type="Texture" id=1]
[ext_resource path="res://Scripts/Enemies/Monolith.gd" type="Script" id=2]

[sub_resource type="RectangleShape2D" id=1]
extents = Vector2( 53, 6 )

[sub_resource type="CapsuleShape2D" id=2]
radius = 8.0
height = 52.0

[node name="Monolith" type="KinematicBody2D"]
collision_layer = 4
script = ExtResource( 2 )
life = 1
SPEED = 300

[node name="qliphort monolith pixel art" type="Sprite" parent="."]
texture = ExtResource( 1 )

[node name="ReflectCol" type="CollisionShape2D" parent="." groups=[
"Reflect",
]]
position = Vector2( 0, -9 )
shape = SubResource( 1 )
one_way_collision = true

[node name="VulnerableCol" type="CollisionShape2D" parent="."]
position = Vector2( 0, 9 )
rotation = 1.5708
shape = SubResource( 2 )

[node name="MoveTimer" type="Timer" parent="."]
wait_time = 3.0

[node name="TurnTimer" type="Timer" parent="."]
wait_time = 3.0
autostart = true

[node name="MonolithTween" type="Tween" parent="."]
[connection signal="timeout" from="MoveTimer" to="." method="_on_MoveTimer_timeout"]
[connection signal="timeout" from="TurnTimer" to="." method="_on_TurnTimer_timeout"]
