[gd_scene load_steps=4 format=2]

[ext_resource path="res://Sprites/Inimigos/qliphort scout pixel art .png" type="Texture" id=1]
[ext_resource path="res://Scripts/Enemies/Scout.gd" type="Script" id=2]

[sub_resource type="CapsuleShape2D" id=1]
radius = 13.4864
height = 96.4772

[node name="Scout" type="KinematicBody2D" groups=[
"Inimigo",
]]
collision_layer = 4
collision_mask = 7
script = ExtResource( 2 )
SPEED = 300

[node name="ScoutSprite" type="Sprite" parent="."]
texture = ExtResource( 1 )

[node name="ScoutCol" type="CollisionShape2D" parent="."]
shape = SubResource( 1 )
